…
        mutate(
            dollar = f_dollar(revenue, digits = -3),
            thous = f_thous(revenue),
            thous_dollars = f_thous(revenue, prefix = '$'),
            abb_month = f_month(date),
            abb_week = factor(f_weekday(date, distinct = TRUE), levels = c('Su', 'M', 'T', 'W', 'Th', 'F', 'S'))
        ) %T>%
        print() %>%
        ggplot(aes(abb_week, revenue)) +
            geom_jitter(width = .2, height = 0, alpha = .2) +
            scale_y_continuous(label = ff_thous(x, prefix = '$'))+
            facet_wrap(~site) +
            theme_bw()

    ## # A tibble: 10,000 × 8
    ##     revenue       date   site  dollar thous thous_dollars abb_month
    ##       <dbl>     <date>  <chr>   <chr> <chr>         <chr>     <chr>
    ## 1  452330.0 1999-10-15 Site 1 $452000  452K         $452K         O
    ## 2  593915.8 1999-08-15 Site 3 $594000  594K         $594K         A
    ## 3  413368.6 1999-04-17 Site 1 $413000  413K         $413K         A
    ## 4  530987.9 1999-09-24 Site 3 $531000  531K         $531K         S
    ## 5  501330.1 1999-02-28 Site 4 $501000  501K         $501K         F
    ## 6  481456.4 1999-05-23 Site 2 $481000  481K         $481K         M
    ## 7  441079.1 1999-08-29 Site 4 $441000  441K         $441K         A
    ## 8  549676.1 1999-01-11 Site 1 $550000  550K         $550K         J
    ## 9  496630.2 1999-11-12 Site 4 $497000  497K         $497K         N
    ## 10 393438.1 1999-09-17 Site 2 $393000  393K         $393K         S
    ## # ... with 9,990 more rows, and 1 more variables: abb_week <fctr>
…
